[
  {
    "id": "bc54",
    "name": "omer",
    "age": 250
  },
  {
    "id": "afe7",
    "name": "omeri",
    "age": 250
  },
  {
    "id": "b73a",
    "name": "hi",
    "age": 1
  },
  {
    "id": "878b",
    "name": "lolo",
    "age": 2121
  },
  {
    "id": "5a81",
    "name": "hi",
    "age": 2222222
  }
]